{"frames": {

"jump (9).png":
{
	"frame": {"x":578,"y":871,"w":285,"h":409},
	"rotated": false,
	"trimmed": true,
	"spriteSourceSize": {"x":69,"y":27,"w":285,"h":409},
	"sourceSize": {"w":542,"h":474}
},
"jump (10).png":
{
	"frame": {"x":1,"y":877,"w":287,"h":438},
	"rotated": false,
	"trimmed": true,
	"spriteSourceSize": {"x":71,"y":21,"w":287,"h":438},
	"sourceSize": {"w":542,"h":474}
},
"jump (11).png":
{
	"frame": {"x":1,"y":1,"w":297,"h":434},
	"rotated": false,
	"trimmed": true,
	"spriteSourceSize": {"x":74,"y":16,"w":297,"h":434},
	"sourceSize": {"w":542,"h":474}
},
"jump (12).png":
{
	"frame": {"x":586,"y":437,"w":286,"h":427},
	"rotated": false,
	"trimmed": true,
	"spriteSourceSize": {"x":71,"y":21,"w":286,"h":427},
	"sourceSize": {"w":542,"h":474}
},
"jump (13).png":
{
	"frame": {"x":874,"y":430,"w":285,"h":419},
	"rotated": false,
	"trimmed": true,
	"spriteSourceSize": {"x":69,"y":26,"w":285,"h":419},
	"sourceSize": {"w":542,"h":474}
},
"jump (14).png":
{
	"frame": {"x":598,"y":1,"w":287,"h":427},
	"rotated": false,
	"trimmed": true,
	"spriteSourceSize": {"x":71,"y":21,"w":287,"h":427},
	"sourceSize": {"w":542,"h":474}
},
"jump (15).png":
{
	"frame": {"x":300,"y":1,"w":296,"h":434},
	"rotated": false,
	"trimmed": true,
	"spriteSourceSize": {"x":74,"y":16,"w":296,"h":434},
	"sourceSize": {"w":542,"h":474}
},
"jump (16).png":
{
	"frame": {"x":290,"y":877,"w":286,"h":427},
	"rotated": false,
	"trimmed": true,
	"spriteSourceSize": {"x":71,"y":21,"w":286,"h":427},
	"sourceSize": {"w":542,"h":474}
},
"jump (1).png":
{
	"frame": {"x":1,"y":437,"w":293,"h":438},
	"rotated": false,
	"trimmed": true,
	"spriteSourceSize": {"x":133,"y":25,"w":293,"h":438},
	"sourceSize": {"w":542,"h":474}
},
"jump (2).png":
{
	"frame": {"x":296,"y":437,"w":288,"h":432},
	"rotated": false,
	"trimmed": true,
	"spriteSourceSize": {"x":102,"y":20,"w":288,"h":432},
	"sourceSize": {"w":542,"h":474}
},
"jump (3).png":
{
	"frame": {"x":1,"y":1317,"w":286,"h":398},
	"rotated": false,
	"trimmed": true,
	"spriteSourceSize": {"x":66,"y":24,"w":286,"h":398},
	"sourceSize": {"w":542,"h":474}
},
"jump (4).png":
{
	"frame": {"x":865,"y":866,"w":286,"h":404},
	"rotated": false,
	"trimmed": true,
	"spriteSourceSize": {"x":67,"y":25,"w":286,"h":404},
	"sourceSize": {"w":542,"h":474}
},
"jump (5).png":
{
	"frame": {"x":578,"y":871,"w":285,"h":409},
	"rotated": false,
	"trimmed": true,
	"spriteSourceSize": {"x":69,"y":27,"w":285,"h":409},
	"sourceSize": {"w":542,"h":474}
},
"jump (6).png":
{
	"frame": {"x":577,"y":1306,"w":286,"h":404},
	"rotated": false,
	"trimmed": true,
	"spriteSourceSize": {"x":67,"y":25,"w":286,"h":404},
	"sourceSize": {"w":542,"h":474}
},
"jump (7).png":
{
	"frame": {"x":289,"y":1317,"w":286,"h":398},
	"rotated": false,
	"trimmed": true,
	"spriteSourceSize": {"x":66,"y":24,"w":286,"h":398},
	"sourceSize": {"w":542,"h":474}
},
"jump (8).png":
{
	"frame": {"x":865,"y":1272,"w":286,"h":404},
	"rotated": false,
	"trimmed": true,
	"spriteSourceSize": {"x":67,"y":25,"w":286,"h":404},
	"sourceSize": {"w":542,"h":474}
}},
"meta": {
	"app": "https://www.codeandweb.com/texturepacker",
	"version": "1.0",
	"image": "jump_fall.png",
	"format": "RGBA8888",
	"size": {"w":1160,"h":1716},
	"scale": "1",
	"smartupdate": "$TexturePacker:SmartUpdate:9aa9280e7d1a1d5452467f235a90f530:6bd9e173c4f5c4acf9eef3f72f584679:04fe39f986b640831aec29a3d8c95301$"
}
}
