{"frames": {

"walk (1).png":
{
	"frame": {"x":1,"y":1,"w":289,"h":437},
	"rotated": true,
	"trimmed": true,
	"spriteSourceSize": {"x":104,"y":26,"w":289,"h":437},
	"sourceSize": {"w":542,"h":474}
},
"walk (2).png":
{
	"frame": {"x":1,"y":583,"w":289,"h":435},
	"rotated": true,
	"trimmed": true,
	"spriteSourceSize": {"x":101,"y":24,"w":289,"h":435},
	"sourceSize": {"w":542,"h":474}
},
"walk (3).png":
{
	"frame": {"x":440,"y":1,"w":289,"h":430},
	"rotated": true,
	"trimmed": true,
	"spriteSourceSize": {"x":99,"y":22,"w":289,"h":430},
	"sourceSize": {"w":542,"h":474}
},
"walk (4).png":
{
	"frame": {"x":439,"y":292,"w":289,"h":429},
	"rotated": true,
	"trimmed": true,
	"spriteSourceSize": {"x":99,"y":22,"w":289,"h":429},
	"sourceSize": {"w":542,"h":474}
},
"walk (5).png":
{
	"frame": {"x":438,"y":583,"w":289,"h":434},
	"rotated": true,
	"trimmed": true,
	"spriteSourceSize": {"x":101,"y":24,"w":289,"h":434},
	"sourceSize": {"w":542,"h":474}
},
"walk (6).png":
{
	"frame": {"x":1,"y":874,"w":289,"h":437},
	"rotated": true,
	"trimmed": true,
	"spriteSourceSize": {"x":104,"y":26,"w":289,"h":437},
	"sourceSize": {"w":542,"h":474}
},
"walk (7).png":
{
	"frame": {"x":1,"y":1165,"w":289,"h":436},
	"rotated": true,
	"trimmed": true,
	"spriteSourceSize": {"x":101,"y":25,"w":289,"h":436},
	"sourceSize": {"w":542,"h":474}
},
"walk (8).png":
{
	"frame": {"x":440,"y":874,"w":289,"h":432},
	"rotated": true,
	"trimmed": true,
	"spriteSourceSize": {"x":99,"y":23,"w":289,"h":432},
	"sourceSize": {"w":542,"h":474}
},
"walk (9).png":
{
	"frame": {"x":439,"y":1165,"w":289,"h":432},
	"rotated": true,
	"trimmed": true,
	"spriteSourceSize": {"x":99,"y":23,"w":289,"h":432},
	"sourceSize": {"w":542,"h":474}
},
"walk (10).png":
{
	"frame": {"x":1,"y":292,"w":289,"h":436},
	"rotated": true,
	"trimmed": true,
	"spriteSourceSize": {"x":101,"y":25,"w":289,"h":436},
	"sourceSize": {"w":542,"h":474}
}},
"meta": {
	"app": "https://www.codeandweb.com/texturepacker",
	"version": "1.0",
	"image": "walk.png",
	"format": "RGBA8888",
	"size": {"w":873,"h":1455},
	"scale": "1",
	"smartupdate": "$TexturePacker:SmartUpdate:bf2e43ddd56fedb107ec06dda511e146:6dc42c0f48dc58f186a7f2a56bd4cb16:f9e905ee92ca6262c513e44422b15402$"
}
}
